{
    "default": {
        "driver": "pdo",
        "engine": "mysql",
        "host": "localhost",
        "port": "3306",
        "user": "user",
        "secret": "password",
        "schema": "ZIMPLIFY"
    }    
}